module bitbucket.org/taptripteam/dataloader

require (
	github.com/davecgh/go-spew v1.1.1 // indirect
	github.com/hashicorp/golang-lru v0.5.0
	github.com/nicksrandall/dataloader v4.1.0+incompatible
	github.com/opentracing/opentracing-go v1.0.2
	github.com/patrickmn/go-cache v2.1.0+incompatible
	github.com/pmezard/go-difflib v1.0.0 // indirect
	github.com/stretchr/testify v1.2.2 // indirect
	golang.org/x/net v0.0.0-20181114220301-adae6a3d119a // indirect
)
